Biostat 203B Homework 5
…
logit_wf <- workflow() |>
  add_recipe(logit_recipe) |>
  add_model(logit_mod)

param_grid <- grid_regular(
  penalty(range = c(-5, 1)), 
  mixture(),
  levels = c(100, 5)
  )
param_grid

# A tibble: 500 × 2
     penalty mixture
       <dbl>   <dbl>
 1 0.00001         0
 2 0.0000115       0
 3 0.0000132       0
 4 0.0000152       0
 5 0.0000175       0
 6 0.0000201       0
 7 0.0000231       0
 8 0.0000266       0
 9 0.0000305       0
10 0.0000351       0
# ℹ 490 more rows
…
logit_fit |>
  # aggregate metrics from K folds
  collect_metrics() |>
  print(width = Inf) |>
  filter(.metric == "roc_auc") |>
  ggplot(mapping = aes(x = penalty, y = mean, color = factor(mixture))) +
  geom_point() +
  labs(x = "Penalty", y = "CV AUC") +
  scale_x_log10()

# A tibble: 1,000 × 8
     penalty mixture .metric  .estimator  mean     n std_err
       <dbl>   <dbl> <chr>    <chr>      <dbl> <int>   <dbl>
 1 0.00001         0 accuracy binary     0.577     5 0.00171
 2 0.00001         0 roc_auc  binary     0.603     5 0.00252
 3 0.0000115       0 accuracy binary     0.577     5 0.00171
 4 0.0000115       0 roc_auc  binary     0.603     5 0.00252
 5 0.0000132       0 accuracy binary     0.577     5 0.00171
 6 0.0000132       0 roc_auc  binary     0.603     5 0.00252
 7 0.0000152       0 accuracy binary     0.577     5 0.00171
 8 0.0000152       0 roc_auc  binary     0.603     5 0.00252
 9 0.0000175       0 accuracy binary     0.577     5 0.00171
10 0.0000175       0 roc_auc  binary     0.603     5 0.00252
   .config               
   <chr>                 
 1 Preprocessor1_Model001
 2 Preprocessor1_Model001
 3 Preprocessor1_Model002
 4 Preprocessor1_Model002
 5 Preprocessor1_Model003
 6 Preprocessor1_Model003
 7 Preprocessor1_Model004
 8 Preprocessor1_Model004
 9 Preprocessor1_Model005
10 Preprocessor1_Model005
# ℹ 990 more rows
…
gb_wf <- workflow() |>
  add_recipe(gb_recipe) |>
  add_model(gb_mod)

param_grid <- grid_regular(
  tree_depth(range = c(1L, 4L)),
  learn_rate(range = c(-3, -0.5), trans = log10_trans()),
  levels = c(4, 12)
  )

param_grid

# A tibble: 48 × 2
   tree_depth learn_rate
        <int>      <dbl>
 1          1    0.001  
 2          2    0.001  
 3          3    0.001  
 4          4    0.001  
 5          1    0.00169
 6          2    0.00169
 7          3    0.00169
 8          4    0.00169
 9          1    0.00285
10          2    0.00285
# ℹ 38 more rows
…
gb_fit |>
  collect_metrics() |>
  print(width = Inf) |>
  filter(.metric == "roc_auc") |>
  ggplot(mapping = aes(x = learn_rate, y = mean, color = factor(tree_depth))) +
  geom_point() +
  labs(x = "Learning Rate", y = "CV AUC") +
  scale_x_log10()

# A tibble: 96 × 8
   tree_depth learn_rate .metric  .estimator  mean     n std_err
        <int>      <dbl> <chr>    <chr>      <dbl> <int>   <dbl>
 1          1    0.001   accuracy binary     0.549     5 0.00385
 2          1    0.001   roc_auc  binary     0.579     5 0.00330
 3          2    0.001   accuracy binary     0.560     5 0.00311
 4          2    0.001   roc_auc  binary     0.591     5 0.00337
 5          3    0.001   accuracy binary     0.568     5 0.00368
 6          3    0.001   roc_auc  binary     0.600     5 0.00324
 7          4    0.001   accuracy binary     0.575     5 0.00279
 8          4    0.001   roc_auc  binary     0.609     5 0.00327
 9          1    0.00169 accuracy binary     0.551     5 0.00334
10          1    0.00169 roc_auc  binary     0.582     5 0.00295
   .config              
   <chr>                
 1 Preprocessor1_Model01
 2 Preprocessor1_Model01
 3 Preprocessor1_Model02
 4 Preprocessor1_Model02
 5 Preprocessor1_Model03
 6 Preprocessor1_Model03
 7 Preprocessor1_Model04
 8 Preprocessor1_Model04
 9 Preprocessor1_Model05
10 Preprocessor1_Model05
# ℹ 86 more rows
…
mlp_wf <- workflow() |>
  add_recipe(mlp_recipe) |>
  add_model(mlp_mod)

param_grid <- grid_regular(
  hidden_units(range = c(1, 20)),
  dropout(range = c(0, 0.5)),
  levels = 5
  )
param_grid

# A tibble: 25 × 2
   hidden_units dropout
          <int>   <dbl>
 1            1   0    
 2            5   0    
 3           10   0    
 4           15   0    
 5           20   0    
 6            1   0.125
 7            5   0.125
 8           10   0.125
 9           15   0.125
10           20   0.125
# ℹ 15 more rows
…
mlp_fit |>
  collect_metrics() |>
  print(width = Inf) |>
  filter(.metric == "roc_auc") |>
  ggplot(mapping = aes(x = dropout, y = mean, color = factor(hidden_units))) +
  geom_point() +
  labs(x = "Dropout Rate", y = "CV AUC") +
  scale_x_log10()

# A tibble: 50 × 8
   hidden_units dropout .metric  .estimator  mean     n  std_err
          <int>   <dbl> <chr>    <chr>      <dbl> <int>    <dbl>
 1            1       0 accuracy binary     0.520     2 0.00107 
 2            1       0 roc_auc  binary     0.5       2 0       
 3            5       0 accuracy binary     0.581     2 0.000410
 4            5       0 roc_auc  binary     0.614     2 0.00127 
 5           10       0 accuracy binary     0.585     2 0.000875
 6           10       0 roc_auc  binary     0.620     2 0.000292
 7           15       0 accuracy binary     0.585     2 0.000109
 8           15       0 roc_auc  binary     0.618     2 0.000858
 9           20       0 accuracy binary     0.588     2 0.00164 
10           20       0 roc_auc  binary     0.619     2 0.00255 
   .config              
   <chr>                
 1 Preprocessor1_Model01
 2 Preprocessor1_Model01
 3 Preprocessor1_Model02
 4 Preprocessor1_Model02
 5 Preprocessor1_Model03
 6 Preprocessor1_Model03
 7 Preprocessor1_Model04
 8 Preprocessor1_Model04
 9 Preprocessor1_Model05
10 Preprocessor1_Model05
# ℹ 40 more rows
…
